{
    "Version": "2012-10-17",
    "Statement": [
        {
            "Effect": "Allow",
            "Action": [
                "lambda:UpdateFunctionCode",
                "lambda:UpdateFunctionConfiguration"
            ],
            "Resource": [
                "arn:aws:lambda:ap-southeast-1:957522172514:function:rnd-lambda-cicd-test1"
            ]
        }
    ]
}
